[gd_scene load_steps=4 format=2]

[ext_resource path="res://Scripts/Main.cs" type="Script" id=1]
[ext_resource path="res://Scenes/Background.tscn" type="PackedScene" id=2]
[ext_resource path="res://Scenes/GUI.tscn" type="PackedScene" id=3]

[node name="Node2D" type="Node2D" groups=[
"Enemies",
]]
script = ExtResource( 1 )

[node name="Background" parent="." instance=ExtResource( 2 )]

[node name="GUI" parent="." instance=ExtResource( 3 )]
margin_left = 20.0
margin_right = 54.0
margin_bottom = 50.0

[node name="MobSpawn" type="Position2D" parent="."]
position = Vector2( 0, 300 )

[node name="MobSpawnTimer" type="Timer" parent="."]
autostart = true
[connection signal="build_tower_request" from="GUI" to="." method="_on_GUI_build_tower_request"]
[connection signal="timeout" from="MobSpawnTimer" to="." method="_on_MobSpawnTimer_timeout"]
