[gd_scene load_steps=4 format=2]

[ext_resource path="res://Images/icon.png" type="Texture" id=1]
[ext_resource path="res://Scripts/Mob.gd" type="Script" id=2]

[sub_resource type="RectangleShape2D" id=1]
extents = Vector2( 15.3609, 15.821 )

[node name="KinematicBody2D" type="KinematicBody2D"]
script = ExtResource( 2 )

[node name="CollisionShape2D" type="CollisionShape2D" parent="."]
shape = SubResource( 1 )

[node name="Sprite" type="Sprite" parent="."]
scale = Vector2( 0.5, 0.5 )
texture = ExtResource( 1 )
